…
```r
# Make a new tibble with a subset of your data, with variables and observations that you are interested in exploring.
apt_buildings %>%
  filter("Indoor pool" %in% amenities) %>%
  group_by(ward, property_type) %>%
  summarise(total_units = sum(no_of_units))
```

```
## `summarise()` has grouped output by 'ward'. You can override using the `.groups` argument.
```

```
## # A tibble: 74 x 3
## # Groups:   ward [26]
##    ward  property_type  total_units
##    <chr> <chr>                <dbl>
##  1 01    PRIVATE               6958
##  2 01    SOCIAL HOUSING         741
##  3 01    TCHC                  1874
##  4 02    PRIVATE              10963
##  5 02    SOCIAL HOUSING         495
##  6 02    TCHC                   478
##  7 03    PRIVATE              10864
##  8 03    SOCIAL HOUSING         515
##  9 03    TCHC                  2021
## 10 04    PRIVATE              13058
## # ... with 64 more rows
```
…
