…
apt_buildings %>%
  filter(!is.na(`non-smoking_building`)) %>%
  filter(!no_of_units %in% outliers) %>%
  mutate(year = as.Date(as.character(year_built), format="%Y")) %>%
  filter(year > as.Date("1910", format="%Y")) %>%
  group_by(year_built, property_type) %>%
  count(`non-smoking_building`) -> apt_buildings2.3 # bin by 1

apt_buildings2.1
```

    ## # A tibble: 51 x 4
    ## # Groups:   year_category, property_type [33]
    ##    year_category property_type  `non-smoking_building`     n
    ##    <fct>         <chr>          <chr>                  <int>
    ##  1 1910          PRIVATE        NO                        35
    ##  2 1910          PRIVATE        YES                       36
    ##  3 1910          SOCIAL HOUSING NO                         3
    ##  4 1910          TCHC           YES                        1
    ##  5 1920          PRIVATE        NO                        69
    ##  6 1920          PRIVATE        YES                       64
    ##  7 1920          SOCIAL HOUSING NO                         2
    ##  8 1920          TCHC           YES                        2
    ##  9 1930          PRIVATE        NO                        53
    ## 10 1930          PRIVATE        YES                       30
    ## # ... with 41 more rows

``` r
apt_buildings2.2
```

    ## # A tibble: 91 x 4
    ## # Groups:   year_category, property_type [60]
    ##    year_category property_type  `non-smoking_building`     n
    ##    <fct>         <chr>          <chr>                  <int>
    ##  1 1910          PRIVATE        NO                         6
    ##  2 1910          PRIVATE        YES                       14
    ##  3 1915          PRIVATE        NO                        29
    ##  4 1915          PRIVATE        YES                       22
    ##  5 1915          SOCIAL HOUSING NO                         3
    ##  6 1915          TCHC           YES                        1
    ##  7 1920          PRIVATE        NO                        16
    ##  8 1920          PRIVATE        YES                        9
    ##  9 1920          TCHC           YES                        1
    ## 10 1925          PRIVATE        NO                        53
    ## # ... with 81 more rows

``` r
apt_buildings2.3
```

    ## # A tibble: 301 x 4
    ## # Groups:   year_built, property_type [208]
    ##    year_built property_type  `non-smoking_building`     n
    ##         <dbl> <chr>          <chr>                  <int>
    ##  1       1911 PRIVATE        NO                         2
    ##  2       1911 PRIVATE        YES                        3
    ##  3       1912 PRIVATE        YES                        3
    ##  4       1913 PRIVATE        YES                        3
    ##  5       1914 PRIVATE        NO                         1
    ##  6       1914 PRIVATE        YES                        2
    ##  7       1915 PRIVATE        NO                         3
    ##  8       1915 PRIVATE        YES                        3
    ##  9       1916 PRIVATE        NO                         1
    ## 10       1916 SOCIAL HOUSING NO                         1
    ## # ... with 291 more rows
…
apt_buildings %>%
  na.omit() %>%
  group_by(ward, `non-smoking_building`) %>%
  summarise(no_of_amenities_sum=sum(no_of_amenities)) -> apt_buildings4
```

    ## `summarise()` has grouped output by 'ward'. You can override using the `.groups` argument.

``` r
apt_buildings4
```

    ## # A tibble: 50 x 3
    ## # Groups:   ward [26]
    ##    ward  `non-smoking_building` no_of_amenities_sum
    ##    <chr> <chr>                                <dbl>
    ##  1 01    NO                                      10
    ##  2 01    YES                                     10
    ##  3 02    NO                                      41
    ##  4 02    YES                                     17
    ##  5 03    NO                                      24
    ##  6 03    YES                                     23
    ##  7 04    NO                                      29
    ##  8 04    YES                                      9
    ##  9 05    NO                                      17
    ## 10 05    YES                                      6
    ## # ... with 40 more rows
…
